timeStamp,elapsed,label,responseCode,responseMessage,threadName,dataType,success,failureMessage,bytes,sentBytes,grpThreads,allThreads,URL,Latency,IdleTime,Connect
1661514883599,78,issuebook,500,Internal Server Error,Thread Group 1-5,text,false,,306,234,20,20,http://localhost:3000/books/issuebook,78,0,1
1661514883598,80,issuebook,500,Internal Server Error,Thread Group 1-13,text,false,,306,234,20,20,http://localhost:3000/books/issuebook,80,0,2
1661514883598,80,issuebook,500,Internal Server Error,Thread Group 1-14,text,false,,306,234,20,20,http://localhost:3000/books/issuebook,80,0,2
1661514883598,81,issuebook,500,Internal Server Error,Thread Group 1-9,text,false,,306,234,20,20,http://localhost:3000/books/issuebook,81,0,2
1661514883598,82,issuebook,500,Internal Server Error,Thread Group 1-16,text,false,,306,234,20,20,http://localhost:3000/books/issuebook,82,0,2
1661514883599,82,issuebook,500,Internal Server Error,Thread Group 1-12,text,false,,306,234,20,20,http://localhost:3000/books/issuebook,82,0,1
1661514883600,83,issuebook,500,Internal Server Error,Thread Group 1-19,text,false,,306,234,20,20,http://localhost:3000/books/issuebook,83,0,0
1661514883600,84,issuebook,500,Internal Server Error,Thread Group 1-3,text,false,,306,234,20,20,http://localhost:3000/books/issuebook,84,0,0
1661514883600,85,issuebook,500,Internal Server Error,Thread Group 1-6,text,false,,306,234,20,20,http://localhost:3000/books/issuebook,85,0,1
1661514883600,86,issuebook,500,Internal Server Error,Thread Group 1-4,text,false,,306,234,20,20,http://localhost:3000/books/issuebook,86,0,1
1661514883600,86,issuebook,500,Internal Server Error,Thread Group 1-8,text,false,,306,234,20,20,http://localhost:3000/books/issuebook,86,0,1
1661514883599,88,issuebook,500,Internal Server Error,Thread Group 1-15,text,false,,306,234,20,20,http://localhost:3000/books/issuebook,88,0,0
1661514883600,95,issuebook,500,Internal Server Error,Thread Group 1-11,text,false,,306,234,20,20,http://localhost:3000/books/issuebook,95,0,1
1661514883597,99,issuebook,201,Created,Thread Group 1-1,text,true,,249,234,20,20,http://localhost:3000/books/issuebook,99,0,2
1661514883598,99,issuebook,201,Created,Thread Group 1-2,text,true,,249,234,20,20,http://localhost:3000/books/issuebook,99,0,1
1661514883599,99,issuebook,201,Created,Thread Group 1-10,text,true,,249,234,20,20,http://localhost:3000/books/issuebook,99,0,0
1661514883598,100,issuebook,201,Created,Thread Group 1-18,text,true,,249,234,20,20,http://localhost:3000/books/issuebook,100,0,1
1661514883598,101,issuebook,500,Internal Server Error,Thread Group 1-17,text,false,,306,234,20,20,http://localhost:3000/books/issuebook,101,0,1
1661514883600,118,issuebook,500,Internal Server Error,Thread Group 1-7,text,false,,306,234,20,20,http://localhost:3000/books/issuebook,118,0,1
1661514883599,120,issuebook,500,Internal Server Error,Thread Group 1-20,text,false,,306,234,20,20,http://localhost:3000/books/issuebook,120,0,0
1661514883678,47,issuebook,500,Internal Server Error,Thread Group 1-13,text,false,,306,234,20,20,http://localhost:3000/books/issuebook,47,0,0
1661514883678,48,issuebook,500,Internal Server Error,Thread Group 1-14,text,false,,306,234,20,20,http://localhost:3000/books/issuebook,48,0,0
1661514883679,47,issuebook,500,Internal Server Error,Thread Group 1-9,text,false,,306,234,20,20,http://localhost:3000/books/issuebook,47,0,0
1661514883680,47,issuebook,500,Internal Server Error,Thread Group 1-16,text,false,,306,234,20,20,http://localhost:3000/books/issuebook,47,0,0
1661514883681,50,issuebook,500,Internal Server Error,Thread Group 1-12,text,false,,306,234,20,20,http://localhost:3000/books/issuebook,50,0,0
1661514883683,54,issuebook,500,Internal Server Error,Thread Group 1-19,text,false,,306,234,20,20,http://localhost:3000/books/issuebook,54,0,0
1661514883686,58,issuebook,500,Internal Server Error,Thread Group 1-4,text,false,,306,234,20,20,http://localhost:3000/books/issuebook,58,0,0
1661514883686,60,issuebook,500,Internal Server Error,Thread Group 1-8,text,false,,306,234,20,20,http://localhost:3000/books/issuebook,60,0,0
1661514883687,60,issuebook,500,Internal Server Error,Thread Group 1-15,text,false,,306,234,20,20,http://localhost:3000/books/issuebook,60,0,0
1661514883695,54,issuebook,500,Internal Server Error,Thread Group 1-11,text,false,,306,234,20,20,http://localhost:3000/books/issuebook,54,0,0
1661514883696,54,issuebook,500,Internal Server Error,Thread Group 1-1,text,false,,306,234,20,20,http://localhost:3000/books/issuebook,54,0,0
1661514883697,53,issuebook,500,Internal Server Error,Thread Group 1-2,text,false,,306,234,20,20,http://localhost:3000/books/issuebook,53,0,0
1661514883698,57,issuebook,500,Internal Server Error,Thread Group 1-18,text,false,,306,234,20,20,http://localhost:3000/books/issuebook,57,0,0
1661514883699,57,issuebook,500,Internal Server Error,Thread Group 1-17,text,false,,306,234,20,20,http://localhost:3000/books/issuebook,57,0,0
1661514883718,43,issuebook,500,Internal Server Error,Thread Group 1-7,text,false,,306,234,20,20,http://localhost:3000/books/issuebook,43,0,0
1661514883719,42,issuebook,500,Internal Server Error,Thread Group 1-20,text,false,,306,234,20,20,http://localhost:3000/books/issuebook,42,0,0
1661514883684,84,issuebook,500,Internal Server Error,Thread Group 1-3,text,false,,306,234,20,20,http://localhost:3000/books/issuebook,84,0,0
1661514883677,91,issuebook,500,Internal Server Error,Thread Group 1-5,text,false,,306,234,20,20,http://localhost:3000/books/issuebook,91,0,0
1661514883685,88,issuebook,500,Internal Server Error,Thread Group 1-6,text,false,,306,234,20,20,http://localhost:3000/books/issuebook,88,0,0
1661514883725,52,issuebook,500,Internal Server Error,Thread Group 1-13,text,false,,306,234,20,20,http://localhost:3000/books/issuebook,52,0,0
1661514883726,52,issuebook,500,Internal Server Error,Thread Group 1-14,text,false,,306,234,20,20,http://localhost:3000/books/issuebook,52,0,0
1661514883726,52,issuebook,500,Internal Server Error,Thread Group 1-9,text,false,,306,234,20,20,http://localhost:3000/books/issuebook,52,0,0
1661514883727,52,issuebook,500,Internal Server Error,Thread Group 1-16,text,false,,306,234,20,20,http://localhost:3000/books/issuebook,52,0,0
1661514883731,56,issuebook,500,Internal Server Error,Thread Group 1-12,text,false,,306,234,20,20,http://localhost:3000/books/issuebook,56,0,0
1661514883737,51,issuebook,500,Internal Server Error,Thread Group 1-19,text,false,,306,234,20,20,http://localhost:3000/books/issuebook,51,0,0
1661514883747,41,issuebook,500,Internal Server Error,Thread Group 1-15,text,false,,306,234,20,20,http://localhost:3000/books/issuebook,41,0,0
1661514883749,40,issuebook,500,Internal Server Error,Thread Group 1-11,text,false,,306,234,20,20,http://localhost:3000/books/issuebook,40,0,0
1661514883744,46,issuebook,500,Internal Server Error,Thread Group 1-4,text,false,,306,234,20,20,http://localhost:3000/books/issuebook,46,0,0
1661514883698,97,issuebook,500,Internal Server Error,Thread Group 1-10,text,false,,306,234,20,20,http://localhost:3000/books/issuebook,97,0,0
1661514883746,55,issuebook,500,Internal Server Error,Thread Group 1-8,text,false,,306,234,20,20,http://localhost:3000/books/issuebook,55,0,0
1661514883750,55,issuebook,500,Internal Server Error,Thread Group 1-2,text,false,,306,234,20,20,http://localhost:3000/books/issuebook,55,0,0
1661514883756,54,issuebook,500,Internal Server Error,Thread Group 1-17,text,false,,306,234,20,20,http://localhost:3000/books/issuebook,54,0,0
1661514883761,55,issuebook,500,Internal Server Error,Thread Group 1-7,text,false,,306,234,20,20,http://localhost:3000/books/issuebook,55,0,0
1661514883761,55,issuebook,500,Internal Server Error,Thread Group 1-20,text,false,,306,234,20,20,http://localhost:3000/books/issuebook,55,0,0
1661514883768,50,issuebook,500,Internal Server Error,Thread Group 1-3,text,false,,306,234,20,20,http://localhost:3000/books/issuebook,50,0,0
1661514883773,55,issuebook,500,Internal Server Error,Thread Group 1-6,text,false,,306,234,20,20,http://localhost:3000/books/issuebook,55,0,0
1661514883777,52,issuebook,500,Internal Server Error,Thread Group 1-13,text,false,,306,234,20,20,http://localhost:3000/books/issuebook,52,0,0
1661514883778,52,issuebook,500,Internal Server Error,Thread Group 1-14,text,false,,306,234,20,20,http://localhost:3000/books/issuebook,52,0,0
1661514883778,52,issuebook,500,Internal Server Error,Thread Group 1-9,text,false,,306,234,20,20,http://localhost:3000/books/issuebook,52,0,0
1661514883779,52,issuebook,500,Internal Server Error,Thread Group 1-16,text,false,,306,234,20,20,http://localhost:3000/books/issuebook,52,0,0
1661514883768,63,issuebook,500,Internal Server Error,Thread Group 1-5,text,false,,306,234,20,20,http://localhost:3000/books/issuebook,63,0,0
1661514883789,52,issuebook,500,Internal Server Error,Thread Group 1-15,text,false,,306,234,20,20,http://localhost:3000/books/issuebook,51,0,0
1661514883789,52,issuebook,500,Internal Server Error,Thread Group 1-11,text,false,,306,234,20,20,http://localhost:3000/books/issuebook,52,0,0
1661514883790,51,issuebook,500,Internal Server Error,Thread Group 1-4,text,false,,306,234,20,20,http://localhost:3000/books/issuebook,51,0,0
1661514883795,48,issuebook,500,Internal Server Error,Thread Group 1-10,text,false,,306,234,20,20,http://localhost:3000/books/issuebook,48,0,0
1661514883788,62,issuebook,500,Internal Server Error,Thread Group 1-12,text,false,,306,234,20,20,http://localhost:3000/books/issuebook,62,0,0
1661514883788,63,issuebook,500,Internal Server Error,Thread Group 1-19,text,false,,306,234,20,20,http://localhost:3000/books/issuebook,63,0,0
1661514883750,106,issuebook,500,Internal Server Error,Thread Group 1-1,text,false,,306,234,20,20,http://localhost:3000/books/issuebook,106,0,0
1661514883756,109,issuebook,500,Internal Server Error,Thread Group 1-18,text,false,,306,234,20,20,http://localhost:3000/books/issuebook,109,0,0
1661514883805,60,issuebook,500,Internal Server Error,Thread Group 1-2,text,false,,306,234,20,20,http://localhost:3000/books/issuebook,60,0,0
1661514883830,41,issuebook,500,Internal Server Error,Thread Group 1-14,text,false,,306,234,20,20,http://localhost:3000/books/issuebook,41,0,0
1661514883830,40,issuebook,500,Internal Server Error,Thread Group 1-13,text,false,,306,234,20,20,http://localhost:3000/books/issuebook,40,0,0
1661514883816,53,issuebook,500,Internal Server Error,Thread Group 1-20,text,false,,306,234,20,20,http://localhost:3000/books/issuebook,53,0,0
1661514883816,52,issuebook,500,Internal Server Error,Thread Group 1-7,text,false,,306,234,20,20,http://localhost:3000/books/issuebook,52,0,0
1661514883810,58,issuebook,500,Internal Server Error,Thread Group 1-17,text,false,,306,234,20,20,http://localhost:3000/books/issuebook,58,0,0
1661514883830,41,issuebook,500,Internal Server Error,Thread Group 1-9,text,false,,306,234,20,20,http://localhost:3000/books/issuebook,41,0,0
1661514883831,40,issuebook,500,Internal Server Error,Thread Group 1-16,text,false,,306,234,20,20,http://localhost:3000/books/issuebook,40,0,0
1661514883818,55,issuebook,500,Internal Server Error,Thread Group 1-3,text,false,,306,234,20,20,http://localhost:3000/books/issuebook,55,0,0
1661514883828,49,issuebook,500,Internal Server Error,Thread Group 1-6,text,false,,306,234,20,20,http://localhost:3000/books/issuebook,49,0,0
1661514883843,38,issuebook,500,Internal Server Error,Thread Group 1-10,text,false,,306,234,20,20,http://localhost:3000/books/issuebook,38,0,0
1661514883851,37,issuebook,500,Internal Server Error,Thread Group 1-19,text,false,,306,234,20,20,http://localhost:3000/books/issuebook,37,0,0
1661514883841,50,issuebook,500,Internal Server Error,Thread Group 1-15,text,false,,306,234,20,20,http://localhost:3000/books/issuebook,50,0,0
1661514883841,51,issuebook,500,Internal Server Error,Thread Group 1-11,text,false,,306,234,20,20,http://localhost:3000/books/issuebook,51,0,0
1661514883841,51,issuebook,500,Internal Server Error,Thread Group 1-4,text,false,,306,234,20,20,http://localhost:3000/books/issuebook,51,0,0
1661514883851,45,issuebook,500,Internal Server Error,Thread Group 1-12,text,false,,306,234,20,20,http://localhost:3000/books/issuebook,45,0,0
1661514883801,102,issuebook,500,Internal Server Error,Thread Group 1-8,text,false,,306,234,20,20,http://localhost:3000/books/issuebook,102,0,0
1661514883856,49,issuebook,500,Internal Server Error,Thread Group 1-1,text,false,,306,234,20,20,http://localhost:3000/books/issuebook,49,0,0
1661514883865,43,issuebook,500,Internal Server Error,Thread Group 1-18,text,false,,306,234,20,20,http://localhost:3000/books/issuebook,43,0,0
1661514883865,44,issuebook,500,Internal Server Error,Thread Group 1-2,text,false,,306,234,20,20,http://localhost:3000/books/issuebook,44,0,0
1661514883831,80,issuebook,500,Internal Server Error,Thread Group 1-5,text,false,,306,234,20,20,http://localhost:3000/books/issuebook,80,0,0
1661514883871,42,issuebook,500,Internal Server Error,Thread Group 1-14,text,false,,306,234,20,20,http://localhost:3000/books/issuebook,42,0,0
1661514883871,43,issuebook,500,Internal Server Error,Thread Group 1-13,text,false,,306,234,20,20,http://localhost:3000/books/issuebook,43,0,0
1661514883871,43,issuebook,500,Internal Server Error,Thread Group 1-20,text,false,,306,234,20,20,http://localhost:3000/books/issuebook,43,0,0
1661514883871,44,issuebook,500,Internal Server Error,Thread Group 1-7,text,false,,306,234,20,20,http://localhost:3000/books/issuebook,44,0,0
1661514883871,44,issuebook,500,Internal Server Error,Thread Group 1-17,text,false,,306,234,20,20,http://localhost:3000/books/issuebook,44,0,0
1661514883871,45,issuebook,500,Internal Server Error,Thread Group 1-9,text,false,,306,234,20,20,http://localhost:3000/books/issuebook,45,0,0
1661514883873,45,issuebook,500,Internal Server Error,Thread Group 1-3,text,false,,306,234,20,20,http://localhost:3000/books/issuebook,45,0,0
1661514883877,45,issuebook,500,Internal Server Error,Thread Group 1-6,text,false,,306,234,20,20,http://localhost:3000/books/issuebook,45,0,0
1661514883881,46,issuebook,500,Internal Server Error,Thread Group 1-10,text,false,,306,234,20,20,http://localhost:3000/books/issuebook,46,0,0
1661514883888,45,issuebook,500,Internal Server Error,Thread Group 1-19,text,false,,306,234,20,20,http://localhost:3000/books/issuebook,45,0,0
1661514883891,45,issuebook,500,Internal Server Error,Thread Group 1-15,text,false,,306,234,20,20,http://localhost:3000/books/issuebook,45,0,0
1661514883892,44,issuebook,500,Internal Server Error,Thread Group 1-11,text,false,,306,234,20,20,http://localhost:3000/books/issuebook,44,0,0
1661514883892,45,issuebook,500,Internal Server Error,Thread Group 1-4,text,false,,306,234,20,20,http://localhost:3000/books/issuebook,45,0,0
1661514883896,45,issuebook,500,Internal Server Error,Thread Group 1-12,text,false,,306,234,20,20,http://localhost:3000/books/issuebook,45,0,0
1661514883903,46,issuebook,500,Internal Server Error,Thread Group 1-8,text,false,,306,234,20,20,http://localhost:3000/books/issuebook,46,0,0
1661514883905,45,issuebook,500,Internal Server Error,Thread Group 1-1,text,false,,306,234,20,20,http://localhost:3000/books/issuebook,45,0,0
1661514883909,46,issuebook,500,Internal Server Error,Thread Group 1-18,text,false,,306,234,20,20,http://localhost:3000/books/issuebook,46,0,0
1661514883909,46,issuebook,500,Internal Server Error,Thread Group 1-2,text,false,,306,234,20,20,http://localhost:3000/books/issuebook,46,0,0
1661514883872,84,issuebook,500,Internal Server Error,Thread Group 1-16,text,false,,306,234,20,20,http://localhost:3000/books/issuebook,84,0,0
1661514883911,46,issuebook,500,Internal Server Error,Thread Group 1-5,text,false,,306,234,20,20,http://localhost:3000/books/issuebook,46,0,0
1661514883913,45,issuebook,500,Internal Server Error,Thread Group 1-14,text,false,,306,234,20,20,http://localhost:3000/books/issuebook,45,0,0
1661514883914,45,issuebook,500,Internal Server Error,Thread Group 1-13,text,false,,306,234,20,20,http://localhost:3000/books/issuebook,45,0,0
1661514883914,45,issuebook,500,Internal Server Error,Thread Group 1-20,text,false,,306,234,20,20,http://localhost:3000/books/issuebook,45,0,0
1661514883915,45,issuebook,500,Internal Server Error,Thread Group 1-7,text,false,,306,234,20,20,http://localhost:3000/books/issuebook,45,0,0
1661514883915,45,issuebook,500,Internal Server Error,Thread Group 1-17,text,false,,306,234,20,20,http://localhost:3000/books/issuebook,45,0,0
1661514883916,45,issuebook,500,Internal Server Error,Thread Group 1-9,text,false,,306,234,20,20,http://localhost:3000/books/issuebook,45,0,0
1661514883918,45,issuebook,500,Internal Server Error,Thread Group 1-3,text,false,,306,234,20,20,http://localhost:3000/books/issuebook,45,0,0
1661514883922,45,issuebook,500,Internal Server Error,Thread Group 1-6,text,false,,306,234,20,20,http://localhost:3000/books/issuebook,45,0,0
1661514883927,45,issuebook,500,Internal Server Error,Thread Group 1-10,text,false,,306,234,20,20,http://localhost:3000/books/issuebook,45,0,0
1661514883933,45,issuebook,500,Internal Server Error,Thread Group 1-19,text,false,,306,234,20,20,http://localhost:3000/books/issuebook,45,0,0
1661514883936,46,issuebook,500,Internal Server Error,Thread Group 1-15,text,false,,306,234,20,20,http://localhost:3000/books/issuebook,46,0,0
1661514883937,45,issuebook,500,Internal Server Error,Thread Group 1-11,text,false,,306,234,20,20,http://localhost:3000/books/issuebook,45,0,0
1661514883937,46,issuebook,500,Internal Server Error,Thread Group 1-4,text,false,,306,234,20,20,http://localhost:3000/books/issuebook,46,0,0
1661514883942,46,issuebook,500,Internal Server Error,Thread Group 1-12,text,false,,306,234,20,20,http://localhost:3000/books/issuebook,46,0,0
1661514883949,48,issuebook,500,Internal Server Error,Thread Group 1-8,text,false,,306,234,20,20,http://localhost:3000/books/issuebook,48,0,0
1661514883950,55,issuebook,500,Internal Server Error,Thread Group 1-1,text,false,,306,234,20,20,http://localhost:3000/books/issuebook,55,0,0
1661514883955,55,issuebook,500,Internal Server Error,Thread Group 1-18,text,false,,306,234,20,20,http://localhost:3000/books/issuebook,55,0,0
1661514883955,55,issuebook,500,Internal Server Error,Thread Group 1-2,text,false,,306,234,20,20,http://localhost:3000/books/issuebook,55,0,0
1661514883956,55,issuebook,500,Internal Server Error,Thread Group 1-16,text,false,,306,234,20,20,http://localhost:3000/books/issuebook,55,0,0
1661514883957,55,issuebook,500,Internal Server Error,Thread Group 1-5,text,false,,306,234,20,20,http://localhost:3000/books/issuebook,55,0,0
1661514883958,56,issuebook,500,Internal Server Error,Thread Group 1-14,text,false,,306,234,20,20,http://localhost:3000/books/issuebook,56,0,0
1661514883959,55,issuebook,500,Internal Server Error,Thread Group 1-13,text,false,,306,234,20,20,http://localhost:3000/books/issuebook,55,0,0
1661514883959,56,issuebook,500,Internal Server Error,Thread Group 1-20,text,false,,306,234,20,20,http://localhost:3000/books/issuebook,56,0,0
1661514883960,55,issuebook,500,Internal Server Error,Thread Group 1-7,text,false,,306,234,20,20,http://localhost:3000/books/issuebook,55,0,0
1661514883961,55,issuebook,500,Internal Server Error,Thread Group 1-17,text,false,,306,234,20,20,http://localhost:3000/books/issuebook,55,0,0
1661514883961,55,issuebook,500,Internal Server Error,Thread Group 1-9,text,false,,306,234,20,20,http://localhost:3000/books/issuebook,55,0,0
1661514883963,56,issuebook,500,Internal Server Error,Thread Group 1-3,text,false,,306,234,20,20,http://localhost:3000/books/issuebook,56,0,0
1661514883967,56,issuebook,500,Internal Server Error,Thread Group 1-6,text,false,,306,234,20,20,http://localhost:3000/books/issuebook,56,0,0
1661514883972,57,issuebook,500,Internal Server Error,Thread Group 1-10,text,false,,306,234,20,20,http://localhost:3000/books/issuebook,57,0,0
1661514883978,58,issuebook,500,Internal Server Error,Thread Group 1-19,text,false,,306,234,20,20,http://localhost:3000/books/issuebook,58,0,0
1661514883982,58,issuebook,500,Internal Server Error,Thread Group 1-15,text,false,,306,234,20,20,http://localhost:3000/books/issuebook,58,0,0
1661514883982,58,issuebook,500,Internal Server Error,Thread Group 1-11,text,false,,306,234,20,20,http://localhost:3000/books/issuebook,58,0,0
1661514883983,58,issuebook,500,Internal Server Error,Thread Group 1-4,text,false,,306,234,20,20,http://localhost:3000/books/issuebook,58,0,0
1661514883988,57,issuebook,500,Internal Server Error,Thread Group 1-12,text,false,,306,234,20,20,http://localhost:3000/books/issuebook,57,0,0
1661514883997,57,issuebook,500,Internal Server Error,Thread Group 1-8,text,false,,306,234,20,20,http://localhost:3000/books/issuebook,57,0,0
1661514884005,50,issuebook,500,Internal Server Error,Thread Group 1-1,text,false,,306,234,20,20,http://localhost:3000/books/issuebook,50,0,0
1661514884010,49,issuebook,500,Internal Server Error,Thread Group 1-18,text,false,,306,234,20,20,http://localhost:3000/books/issuebook,49,0,0
1661514884010,50,issuebook,500,Internal Server Error,Thread Group 1-2,text,false,,306,234,20,20,http://localhost:3000/books/issuebook,50,0,0
1661514884011,49,issuebook,500,Internal Server Error,Thread Group 1-16,text,false,,306,234,20,20,http://localhost:3000/books/issuebook,49,0,0
1661514884012,50,issuebook,500,Internal Server Error,Thread Group 1-5,text,false,,306,234,20,20,http://localhost:3000/books/issuebook,50,0,0
1661514884014,49,issuebook,500,Internal Server Error,Thread Group 1-14,text,false,,306,234,20,20,http://localhost:3000/books/issuebook,49,0,0
1661514884014,49,issuebook,500,Internal Server Error,Thread Group 1-13,text,false,,306,234,20,20,http://localhost:3000/books/issuebook,49,0,0
1661514884015,49,issuebook,500,Internal Server Error,Thread Group 1-20,text,false,,306,234,20,20,http://localhost:3000/books/issuebook,49,0,0
1661514884015,49,issuebook,500,Internal Server Error,Thread Group 1-7,text,false,,306,234,20,20,http://localhost:3000/books/issuebook,49,0,0
1661514884016,49,issuebook,500,Internal Server Error,Thread Group 1-17,text,false,,306,234,20,20,http://localhost:3000/books/issuebook,49,0,0
1661514884016,49,issuebook,500,Internal Server Error,Thread Group 1-9,text,false,,306,234,20,20,http://localhost:3000/books/issuebook,49,0,0
1661514884019,50,issuebook,500,Internal Server Error,Thread Group 1-3,text,false,,306,234,20,20,http://localhost:3000/books/issuebook,50,0,0
1661514884023,50,issuebook,500,Internal Server Error,Thread Group 1-6,text,false,,306,234,20,20,http://localhost:3000/books/issuebook,50,0,0
1661514884029,51,issuebook,500,Internal Server Error,Thread Group 1-10,text,false,,306,234,20,20,http://localhost:3000/books/issuebook,51,0,0
1661514884036,51,issuebook,500,Internal Server Error,Thread Group 1-19,text,false,,306,234,20,20,http://localhost:3000/books/issuebook,51,0,0
1661514884040,51,issuebook,500,Internal Server Error,Thread Group 1-15,text,false,,306,234,20,20,http://localhost:3000/books/issuebook,51,0,0
1661514884040,51,issuebook,500,Internal Server Error,Thread Group 1-11,text,false,,306,234,20,20,http://localhost:3000/books/issuebook,51,0,0
1661514884041,51,issuebook,500,Internal Server Error,Thread Group 1-4,text,false,,306,234,20,20,http://localhost:3000/books/issuebook,51,0,0
1661514884045,50,issuebook,500,Internal Server Error,Thread Group 1-12,text,false,,306,234,20,20,http://localhost:3000/books/issuebook,50,0,0
1661514884054,52,issuebook,500,Internal Server Error,Thread Group 1-8,text,false,,306,234,20,20,http://localhost:3000/books/issuebook,52,0,0
1661514884055,53,issuebook,500,Internal Server Error,Thread Group 1-1,text,false,,306,234,20,20,http://localhost:3000/books/issuebook,53,0,0
1661514884059,53,issuebook,500,Internal Server Error,Thread Group 1-18,text,false,,306,234,20,20,http://localhost:3000/books/issuebook,53,0,0
1661514884060,52,issuebook,500,Internal Server Error,Thread Group 1-2,text,false,,306,234,20,20,http://localhost:3000/books/issuebook,52,0,0
1661514884060,53,issuebook,500,Internal Server Error,Thread Group 1-16,text,false,,306,234,20,20,http://localhost:3000/books/issuebook,53,0,0
1661514884062,52,issuebook,500,Internal Server Error,Thread Group 1-5,text,false,,306,234,20,20,http://localhost:3000/books/issuebook,52,0,0
1661514884063,52,issuebook,500,Internal Server Error,Thread Group 1-14,text,false,,306,234,20,20,http://localhost:3000/books/issuebook,52,0,0
1661514884064,52,issuebook,500,Internal Server Error,Thread Group 1-13,text,false,,306,234,19,19,http://localhost:3000/books/issuebook,52,0,0
1661514884064,52,issuebook,500,Internal Server Error,Thread Group 1-20,text,false,,306,234,18,18,http://localhost:3000/books/issuebook,52,0,0
1661514884064,53,issuebook,500,Internal Server Error,Thread Group 1-7,text,false,,306,234,18,18,http://localhost:3000/books/issuebook,53,0,0
1661514884065,52,issuebook,500,Internal Server Error,Thread Group 1-17,text,false,,306,234,18,18,http://localhost:3000/books/issuebook,52,0,0
1661514884065,53,issuebook,500,Internal Server Error,Thread Group 1-9,text,false,,306,234,18,18,http://localhost:3000/books/issuebook,53,0,0
1661514884069,51,issuebook,500,Internal Server Error,Thread Group 1-3,text,false,,306,234,17,17,http://localhost:3000/books/issuebook,51,0,0
1661514884073,51,issuebook,500,Internal Server Error,Thread Group 1-6,text,false,,306,234,17,17,http://localhost:3000/books/issuebook,51,0,0
1661514884081,49,issuebook,500,Internal Server Error,Thread Group 1-10,text,false,,306,234,17,17,http://localhost:3000/books/issuebook,49,0,0
1661514884088,46,issuebook,500,Internal Server Error,Thread Group 1-19,text,false,,306,234,17,17,http://localhost:3000/books/issuebook,46,0,0
1661514884091,46,issuebook,500,Internal Server Error,Thread Group 1-15,text,false,,306,234,16,16,http://localhost:3000/books/issuebook,46,0,0
1661514884091,46,issuebook,500,Internal Server Error,Thread Group 1-11,text,false,,306,234,15,15,http://localhost:3000/books/issuebook,46,0,0
1661514884092,46,issuebook,500,Internal Server Error,Thread Group 1-4,text,false,,306,234,14,14,http://localhost:3000/books/issuebook,46,0,0
1661514884095,47,issuebook,500,Internal Server Error,Thread Group 1-12,text,false,,306,234,13,13,http://localhost:3000/books/issuebook,47,0,0
1661514884106,41,issuebook,500,Internal Server Error,Thread Group 1-8,text,false,,306,234,12,12,http://localhost:3000/books/issuebook,41,0,0
1661514884108,40,issuebook,500,Internal Server Error,Thread Group 1-1,text,false,,306,234,12,12,http://localhost:3000/books/issuebook,40,0,0
1661514884112,38,issuebook,500,Internal Server Error,Thread Group 1-18,text,false,,306,234,12,12,http://localhost:3000/books/issuebook,38,0,0
1661514884112,38,issuebook,500,Internal Server Error,Thread Group 1-2,text,false,,306,234,12,12,http://localhost:3000/books/issuebook,38,0,0
1661514884113,38,issuebook,500,Internal Server Error,Thread Group 1-16,text,false,,306,234,11,11,http://localhost:3000/books/issuebook,38,0,0
1661514884114,37,issuebook,500,Internal Server Error,Thread Group 1-5,text,false,,306,234,10,10,http://localhost:3000/books/issuebook,37,0,0
1661514884116,37,issuebook,500,Internal Server Error,Thread Group 1-20,text,false,,306,234,10,10,http://localhost:3000/books/issuebook,37,0,0
1661514884117,37,issuebook,500,Internal Server Error,Thread Group 1-7,text,false,,306,234,9,9,http://localhost:3000/books/issuebook,37,0,0
1661514884117,37,issuebook,500,Internal Server Error,Thread Group 1-17,text,false,,306,234,8,8,http://localhost:3000/books/issuebook,37,0,0
1661514884120,36,issuebook,500,Internal Server Error,Thread Group 1-3,text,false,,306,234,7,7,http://localhost:3000/books/issuebook,36,0,0
1661514884124,34,issuebook,500,Internal Server Error,Thread Group 1-6,text,false,,306,234,6,6,http://localhost:3000/books/issuebook,34,0,0
1661514884130,31,issuebook,500,Internal Server Error,Thread Group 1-10,text,false,,306,234,5,5,http://localhost:3000/books/issuebook,31,0,0
1661514884147,19,issuebook,500,Internal Server Error,Thread Group 1-8,text,false,,306,234,4,4,http://localhost:3000/books/issuebook,19,0,0
1661514884148,19,issuebook,500,Internal Server Error,Thread Group 1-1,text,false,,306,234,3,3,http://localhost:3000/books/issuebook,19,0,0
1661514884150,17,issuebook,500,Internal Server Error,Thread Group 1-18,text,false,,306,234,2,2,http://localhost:3000/books/issuebook,17,0,0
1661514884151,17,issuebook,500,Internal Server Error,Thread Group 1-5,text,false,,306,234,1,1,http://localhost:3000/books/issuebook,17,0,0
